C:\work\NetBean\xoswing\src\main\java\com\mycompany\oxswing\Table.java
C:\work\NetBean\xoswing\src\main\java\com\mycompany\oxswing\TableFrame.java
C:\work\NetBean\xoswing\src\main\java\com\mycompany\oxswing\TestWriteFile.java
C:\work\NetBean\xoswing\src\main\java\com\mycompany\oxswing\TestReadFile.java
C:\work\NetBean\xoswing\src\main\java\com\mycompany\oxswing\Game.java
C:\work\NetBean\xoswing\src\main\java\com\mycompany\oxswing\Player.java
C:\work\NetBean\xoswing\src\main\java\com\mycompany\oxswing\PlayerService.java
C:\work\NetBean\xoswing\src\main\java\com\mycompany\oxswing\Main.java
